Lab 5_4/cpu_wavedata.vcd
$date
	Wed Feb  2 07:49:57 2022
$end
$version
	Icarus Verilog
$end
$timescale
	1s
$end
$scope module cpu_tb $end
$var wire 32 ! PC [31:0] $end
$var wire 32 " INSTRUCTION [31:0] $end
$var reg 1 # CLK $end
$var reg 1 $ RESET $end
$scope module mycpu $end
$var wire 1 # CLK $end
$var wire 32 % INSTRUCTION [31:0] $end
$var wire 1 $ RESET $end
$var wire 1 & beq $end
$var wire 1 ' offset_select $end
$var wire 1 ( writeEnable $end
$var wire 32 ) temp2PC [31:0] $end
$var wire 32 * temp1PC [31:0] $end
$var wire 1 + suboraddSelect $end
$var wire 32 , offset [31:0] $end
$var wire 32 - newPC [31:0] $end
$var wire 8 . negative [7:0] $end
$var wire 8 / mux2out [7:0] $end
$var wire 8 0 mux1out [7:0] $end
$var wire 1 1 jump $end
$var wire 1 2 immediateSelect $end
$var wire 32 3 extended_offset [31:0] $end
$var wire 1 4 branch $end
$var wire 1 5 ZERO $end
$var wire 3 6 WRITEREG [2:0] $end
$var wire 8 7 REGOUT2 [7:0] $end
$var wire 8 8 REGOUT1 [7:0] $end
$var wire 3 9 READREG2 [2:0] $end
$var wire 3 : READREG1 [2:0] $end
$var wire 8 ; OPCODE [7:0] $end
$var wire 8 < IMMEDIATE [7:0] $end
$var wire 8 = ALURESULT [7:0] $end
$var wire 3 > ALUOP [2:0] $end
$var reg 32 ? PC [31:0] $end
$scope module controlUnit $end
$var wire 8 @ OPCODE [7:0] $end
$var reg 3 A ALUOP [2:0] $end
$var reg 1 4 branch $end
$var reg 1 2 immediateSelect $end
$var reg 1 1 jump $end
$var reg 1 + suboraddSelect $end
$var reg 1 ( writeEnable $end
$upscope $end
$scope module mux1 $end
$var wire 8 B IN2 [7:0] $end
$var wire 1 + SEL $end
$var wire 8 C IN1 [7:0] $end
$var reg 8 D OUT [7:0] $end
$upscope $end
$scope module mux2 $end
$var wire 8 E IN1 [7:0] $end
$var wire 8 F IN2 [7:0] $end
$var wire 1 2 SEL $end
$var reg 8 G OUT [7:0] $end
$upscope $end
$scope module myalu $end
$var wire 8 H DATA2 [7:0] $end
$var wire 8 I RESULT [7:0] $end
$var wire 3 J SELECT [2:0] $end
$var wire 1 5 ZERO $end
$var wire 8 K RESULT4 [7:0] $end
$var wire 8 L RESULT3 [7:0] $end
$var wire 8 M RESULT2 [7:0] $end
$var wire 8 N RESULT1 [7:0] $end
$var wire 8 O DATA1 [7:0] $end
$var reg 8 P out [7:0] $end
$scope module a2 $end
$var wire 8 Q DATA2 [7:0] $end
$var wire 8 R RESULT [7:0] $end
$var wire 8 S DATA1 [7:0] $end
$var reg 1 5 ZERO $end
$upscope $end
$scope module a3 $end
$var wire 8 T DATA2 [7:0] $end
$var wire 8 U RESULT [7:0] $end
$var wire 8 V DATA1 [7:0] $end
$upscope $end
$scope module f $end
$var wire 8 W DATA2 [7:0] $end
$var wire 8 X RESULT [7:0] $end
$upscope $end
$scope module o1 $end
$var wire 8 Y DATA2 [7:0] $end
$var wire 8 Z RESULT [7:0] $end
$var wire 8 [ DATA1 [7:0] $end
$upscope $end
$upscope $end
$scope module pc_update $end
$var wire 32 \ IN1 [31:0] $end
$var wire 32 ] IN2 [31:0] $end
$var wire 1 ' SEL $end
$var reg 32 ^ OUT [31:0] $end
$upscope $end
$scope module regfile $end
$var wire 1 # CLK $end
$var wire 8 _ IN [7:0] $end
$var wire 3 ` INADDRESS [2:0] $end
$var wire 8 a OUT1 [7:0] $end
$var wire 3 b OUT1ADDRESS [2:0] $end
$var wire 8 c OUT2 [7:0] $end
$var wire 3 d OUT2ADDRESS [2:0] $end
$var wire 1 $ RESET $end
$var wire 1 ( WRITE $end
$var integer 32 e i [31:0] $end
$upscope $end
$upscope $end
$upscope $end
$enddefinitions $end
#0
$dumpvars
bx e
bx d
bx c
bx b
bx a
bx `
bx _
bx ^
bx ]
bx \
bx [
bx Z
bx Y
bx X
bx W
bx V
bx U
bx T
bx S
bx R
bx Q
bx P
bx O
bx N
bx M
bx L
bx K
bx J
bx I
bx H
bx G
bx F
bx E
bx D
bx C
bx B
bx A
bx @
bx ?
bx >
bx =
bx <
bx ;
bx :
bx 9
bx 8
bx 7
bx 6
x5
x4
bx00 3
x2
x1
bx 0
bx /
bx .
bx -
b0xxxxxxxx ,
x+
bx *
bx )
x(
x'
x&
bx %
x$
0#
bx "
bx !
$end
#3
1$
#4
b1000 e
1#
#5
b0 !
b0 ?
#6
b100 -
b100 ^
b100 *
b100 \
0$
#7
b10000 3
b1010 /
b1010 G
b1010 H
b1010 Q
b1010 T
b1010 W
b1010 Y
b0 ;
b0 @
b100 6
b100 `
b100 ,
b0 :
b0 b
b10 9
b10 d
b1010 <
b1010 E
b1000000000000001010 "
b1000000000000001010 %
#8
0'
0&
b1010 =
b1010 I
b1010 _
b1010 P
04
01
b0 >
b0 A
b0 J
0+
02
1(
b0x0x0 L
b0x0x0 U
bx1x1x K
bx1x1x Z
b1010 N
b1010 X
0#
#9
b0 0
b0 D
b0 F
b10100 )
b10100 ]
b0 8
b0 O
b0 S
b0 V
b0 [
b0 a
b0 7
b0 C
b0 c
#10
b1010 K
b1010 Z
b0 L
b0 U
b0 .
b0 B
#11
05
b1010 M
b1010 R
#12
1#
#13
b100 !
b100 ?
#14
b1000 -
b1000 ^
b1000 *
b1000 \
#15
b10100 3
b1 /
b1 G
b1 H
b1 Q
b1 T
b1 W
b1 Y
b101 6
b101 `
b101 ,
b1 9
b1 d
b1 <
b1 E
b11000 )
b11000 ]
b1010000000000000001 "
b1010000000000000001 %
#16
b1 =
b1 I
b1 _
b1 P
b1 K
b1 Z
b1 N
b1 X
0#
#17
b11100 )
b11100 ]
b1 M
b1 R
#20
1#
#21
b1000 !
b1000 ?
#22
b1100 -
b1100 ^
b1100 *
b1100 \
#23
b11000 3
b110 6
b110 `
b110 ,
b100000 )
b100000 ]
b1100000000000000001 "
b1100000000000000001 %
#24
0#
#25
b100100 )
b100100 ]
#28
1#
#29
b1100 !
b1100 ?
#30
b10000 -
b10000 ^
b10000 *
b10000 \
#31
b11100 3
b1001 /
b1001 G
b1001 H
b1001 Q
b1001 T
b1001 W
b1001 Y
b111 6
b111 `
b111 ,
b1001 <
b1001 E
b101000 )
b101000 ]
b1110000000000001001 "
b1110000000000001001 %
#32
b1001 =
b1001 I
b1001 _
b1001 P
b1001 K
b1001 Z
b1001 N
b1001 X
0#
#33
b101100 )
b101100 ]
b1001 M
b1001 R
#36
1#
#37
b10000 !
b10000 ?
#38
b10100 -
b10100 ^
b10100 *
b10100 \
#39
b10000 3
b101 /
b101 G
b101 H
b101 Q
b101 T
b101 W
b101 Y
b11 ;
b11 @
b100 6
b100 `
b100 ,
b100 :
b100 b
b101 9
b101 d
b101 <
b101 E
b110000 )
b110000 ]
b11000001000000010000000101 "
b11000001000000010000000101 %
#40
b0 /
b0 G
b0 H
b0 Q
b0 T
b0 W
b0 Y
b1 >
b1 A
b1 J
1+
12
b1001 =
b1001 I
b1001 _
b1001 P
b101 K
b101 Z
b101 N
b101 X
0#
#41
b0 K
b0 Z
b0 N
b0 X
b100100 )
b100100 ]
b1010 8
b1010 O
b1010 S
b1010 V
b1010 [
b1010 a
b1 7
b1 C
b1 c
#42
b11111111 /
b11111111 G
b11111111 H
b11111111 Q
b11111111 T
b11111111 W
b11111111 Y
b11111111 0
b11111111 D
b11111111 F
b1010 K
b1010 Z
b11111111 .
b11111111 B
#43
b1010 L
b1010 U
b11111111 K
b11111111 Z
b11111111 N
b11111111 X
#44
1#
#45
b10100 !
b10100 ?
#46
b11000 -
b11000 ^
b11000 *
b11000 \
#47
b100 3
b111 ;
b111 @
b1 6
b1 `
b1 ,
b110 9
b110 d
b110 <
b110 E
b1001 8
b1001 O
b1001 S
b1001 V
b1001 [
b1001 a
b101000 )
b101000 ]
b111000000010000010000000110 "
b111000000010000010000000110 %
#48
14
0(
b1001 L
b1001 U
0#
#49
b1000 =
b1000 I
b1000 _
b1000 P
b11100 )
b11100 ]
b1000 M
b1000 R
#52
1#
#53
b11000 !
b11000 ?
#54
b11100 -
b11100 ^
b11100 *
b11100 \
#55
b11111111111111111111111111110100 3
b110 ;
b110 @
b101 6
b101 `
b11111101 ,
b0 :
b0 b
b0 9
b0 d
b0 <
b0 E
b100000 )
b100000 ]
b110111111010000000000000000 "
b110111111010000000000000000 %
#56
b100000 -
b100000 ^
b1 /
b1 G
b1 H
b1 Q
b1 T
b1 W
b1 Y
1'
b11111111 =
b11111111 I
b11111111 _
b11111111 P
b1 0
b1 D
b1 F
04
11
b0 >
b0 A
b0 J
0+
0#
#57
b0 /
b0 G
b0 H
b0 Q
b0 T
b0 W
b0 Y
b1 =
b1 I
b1 _
b1 P
b10000 -
b10000 ^
b0 0
b0 D
b0 F
b1 L
b1 U
b1001 K
b1001 Z
b1 N
b1 X
b10000 )
b10000 ]
b0 8
b0 O
b0 S
b0 V
b0 [
b0 a
b0 7
b0 C
b0 c
#58
b0 =
b0 I
b0 _
b0 P
b0 N
b0 X
b0 K
b0 Z
b0 L
b0 U
b0 .
b0 B
#59
15
b0 M
b0 R
#60
1#
#61
b10000 !
b10000 ?
#62
b10100 *
b10100 \
#63
b10000 3
b1000 -
b1000 ^
b11 ;
b11 @
b100 6
b100 `
b100 ,
b100 :
b100 b
b101 9
b101 d
b101 <
b101 E
b1000 )
b1000 ]
b11000001000000010000000101 "
b11000001000000010000000101 %
#64
b10100 -
b10100 ^
0'
01
b1 >
b1 A
b1 J
1+
1(
0#
#65
b100100 )
b100100 ]
b1001 8
b1001 O
b1001 S
b1001 V
b1001 [
b1001 a
b1 7
b1 C
b1 c
#66
b11111111 /
b11111111 G
b11111111 H
b11111111 Q
b11111111 T
b11111111 W
b11111111 Y
b11111111 0
b11111111 D
b11111111 F
b1001 K
b1001 Z
b11111111 .
b11111111 B
#67
b1001 L
b1001 U
b11111111 K
b11111111 Z
b11111111 N
b11111111 X
#68
b1000 =
b1000 I
b1000 _
b1000 P
05
b1000 M
b1000 R
1#
#69
b10100 !
b10100 ?
#70
b11000 -
b11000 ^
b11000 *
b11000 \
#71
b100 3
b111 ;
b111 @
b1 6
b1 `
b1 ,
b110 9
b110 d
b110 <
b110 E
b1000 8
b1000 O
b1000 S
b1000 V
b1000 [
b1000 a
b101000 )
b101000 ]
b111000000010000010000000110 "
b111000000010000010000000110 %
#72
14
0(
b1000 L
b1000 U
0#
#73
b111 =
b111 I
b111 _
b111 P
b11100 )
b11100 ]
b111 M
b111 R
#76
1#
#77
b11000 !
b11000 ?
#78
b11100 -
b11100 ^
b11100 *
b11100 \
#79
b11111111111111111111111111110100 3
b110 ;
b110 @
b101 6
b101 `
b11111101 ,
b0 :
b0 b
b0 9
b0 d
b0 <
b0 E
b100000 )
b100000 ]
b110111111010000000000000000 "
b110111111010000000000000000 %
#80
b100000 -
b100000 ^
b1 /
b1 G
b1 H
b1 Q
b1 T
b1 W
b1 Y
1'
b11111111 =
b11111111 I
b11111111 _
b11111111 P
b1 0
b1 D
b1 F
04
11
b0 >
b0 A
b0 J
0+
0#
#81
b0 /
b0 G
b0 H
b0 Q
b0 T
b0 W
b0 Y
b1 =
b1 I
b1 _
b1 P
b10000 -
b10000 ^
b0 0
b0 D
b0 F
b0 L
b0 U
b1001 K
b1001 Z
b1 N
b1 X
b10000 )
b10000 ]
b0 8
b0 O
b0 S
b0 V
b0 [
b0 a
b0 7
b0 C
b0 c
#82
b0 =
b0 I
b0 _
b0 P
b0 N
b0 X
b0 K
b0 Z
b0 .
b0 B
#83
15
b0 M
b0 R
#84
1#
#85
b10000 !
b10000 ?
#86
b10100 *
b10100 \
#87
b10000 3
b1000 -
b1000 ^
b11 ;
b11 @
b100 6
b100 `
b100 ,
b100 :
b100 b
b101 9
b101 d
b101 <
b101 E
b1000 )
b1000 ]
b11000001000000010000000101 "
b11000001000000010000000101 %
#88
b10100 -
b10100 ^
0'
01
b1 >
b1 A
b1 J
1+
1(
0#
#89
b100100 )
b100100 ]
b1000 8
b1000 O
b1000 S
b1000 V
b1000 [
b1000 a
b1 7
b1 C
b1 c
#90
b11111111 /
b11111111 G
b11111111 H
b11111111 Q
b11111111 T
b11111111 W
b11111111 Y
b11111111 0
b11111111 D
b11111111 F
b1000 K
b1000 Z
b11111111 .
b11111111 B
#91
b1000 L
b1000 U
b11111111 K
b11111111 Z
b11111111 N
b11111111 X
#92
b111 =
b111 I
b111 _
b111 P
05
b111 M
b111 R
1#
#93
b10100 !
b10100 ?
#94
b11000 -
b11000 ^
b11000 *
b11000 \
#95
b100 3
b111 ;
b111 @
b1 6
b1 `
b1 ,
b110 9
b110 d
b110 <
b110 E
b111 8
b111 O
b111 S
b111 V
b111 [
b111 a
b101000 )
b101000 ]
b111000000010000010000000110 "
b111000000010000010000000110 %
#96
14
0(
b111 L
b111 U
0#
#97
b110 =
b110 I
b110 _
b110 P
b11100 )
b11100 ]
b110 M
b110 R
#100
1#
#101
b11000 !
b11000 ?
#102
b11100 -
b11100 ^
b11100 *
b11100 \
#103
b11111111111111111111111111110100 3
b110 ;
b110 @
b101 6
b101 `
b11111101 ,
b0 :
b0 b
b0 9
b0 d
b0 <
b0 E
b100000 )
b100000 ]
b110111111010000000000000000 "
b110111111010000000000000000 %
#104
b100000 -
b100000 ^
b1 /
b1 G
b1 H
b1 Q
b1 T
b1 W
b1 Y
1'
b11111111 =
b11111111 I
b11111111 _
b11111111 P
b1 0
b1 D
b1 F
04
11
b0 >
b0 A
b0 J
0+
0#
#105
b0 /
b0 G
b0 H
b0 Q
b0 T
b0 W
b0 Y
b1 =
b1 I
b1 _
b1 P
b10000 -
b10000 ^
b0 0
b0 D
b0 F
b1 L
b1 U
b111 K
b111 Z
b1 N
b1 X
b10000 )
b10000 ]
b0 8
b0 O
b0 S
b0 V
b0 [
b0 a
b0 7
b0 C
b0 c
#106
b0 =
b0 I
b0 _
b0 P
b0 N
b0 X
b0 K
b0 Z
b0 L
b0 U
b0 .
b0 B
#107
15
b0 M
b0 R
#108
1#
#109
b10000 !
b10000 ?
#110
b10100 *
b10100 \
#111
b10000 3
b1000 -
b1000 ^
b11 ;
b11 @
b100 6
b100 `
b100 ,
b100 :
b100 b
b101 9
b101 d
b101 <
b101 E
b1000 )
b1000 ]
b11000001000000010000000101 "
b11000001000000010000000101 %
#112
b10100 -
b10100 ^
0'
01
b1 >
b1 A
b1 J
1+
1(
0#
#113
b100100 )
b100100 ]
b111 8
b111 O
b111 S
b111 V
b111 [
b111 a
b1 7
b1 C
b1 c
#114
b11111111 /
b11111111 G
b11111111 H
b11111111 Q
b11111111 T
b11111111 W
b11111111 Y
b11111111 0
b11111111 D
b11111111 F
b111 K
b111 Z
b11111111 .
b11111111 B
#115
b111 L
b111 U
b11111111 K
b11111111 Z
b11111111 N
b11111111 X
#116
b110 =
b110 I
b110 _
b110 P
05
b110 M
b110 R
1#
#117
b10100 !
b10100 ?
#118
b11000 -
b11000 ^
b11000 *
b11000 \
#119
b100 3
b111 ;
b111 @
b1 6
b1 `
b1 ,
b110 9
b110 d
b110 <
b110 E
b110 8
b110 O
b110 S
b110 V
b110 [
b110 a
b101000 )
b101000 ]
b111000000010000010000000110 "
b111000000010000010000000110 %
#120
14
0(
b110 L
b110 U
0#
#121
b101 =
b101 I
b101 _
b101 P
b11100 )
b11100 ]
b101 M
b101 R
#124
1#
#125
b11000 !
b11000 ?
#126
b11100 -
b11100 ^
b11100 *
b11100 \
#127
b11111111111111111111111111110100 3
b110 ;
b110 @
b101 6
b101 `
b11111101 ,
b0 :
b0 b
b0 9
b0 d
b0 <
b0 E
b100000 )
b100000 ]
b110111111010000000000000000 "
b110111111010000000000000000 %
#128
b100000 -
b100000 ^
b1 /
b1 G
b1 H
b1 Q
b1 T
b1 W
b1 Y
1'
b11111111 =
b11111111 I
b11111111 _
b11111111 P
b1 0
b1 D
b1 F
04
11
b0 >
b0 A
b0 J
0+
0#
#129
b0 /
b0 G
b0 H
b0 Q
b0 T
b0 W
b0 Y
b1 =
b1 I
b1 _
b1 P
b10000 -
b10000 ^
b0 0
b0 D
b0 F
b0 L
b0 U
b111 K
b111 Z
b1 N
b1 X
b10000 )
b10000 ]
b0 8
b0 O
b0 S
b0 V
b0 [
b0 a
b0 7
b0 C
b0 c
#130
b0 =
b0 I
b0 _
b0 P
b0 N
b0 X
b0 K
b0 Z
b0 .
b0 B
#131
15
b0 M
b0 R
#132
1#
#133
b10000 !
b10000 ?
#134
b10100 *
b10100 \
#135
b10000 3
b1000 -
b1000 ^
b11 ;
b11 @
b100 6
b100 `
b100 ,
b100 :
b100 b
b101 9
b101 d
b101 <
b101 E
b1000 )
b1000 ]
b11000001000000010000000101 "
b11000001000000010000000101 %
#136
b10100 -
b10100 ^
0'
01
b1 >
b1 A
b1 J
1+
1(
0#
#137
b100100 )
b100100 ]
b110 8
b110 O
b110 S
b110 V
b110 [
b110 a
b1 7
b1 C
b1 c
#138
b11111111 /
b11111111 G
b11111111 H
b11111111 Q
b11111111 T
b11111111 W
b11111111 Y
b11111111 0
b11111111 D
b11111111 F
b110 K
b110 Z
b11111111 .
b11111111 B
#139
b110 L
b110 U
b11111111 K
b11111111 Z
b11111111 N
b11111111 X
#140
b101 =
b101 I
b101 _
b101 P
05
b101 M
b101 R
1#
#141
b10100 !
b10100 ?
#142
b11000 -
b11000 ^
b11000 *
b11000 \
#143
b100 3
b111 ;
b111 @
b1 6
b1 `
b1 ,
b110 9
b110 d
b110 <
b110 E
b101 8
b101 O
b101 S
b101 V
b101 [
b101 a
b101000 )
b101000 ]
b111000000010000010000000110 "
b111000000010000010000000110 %
#144
14
0(
b101 L
b101 U
0#
#145
b100 =
b100 I
b100 _
b100 P
b11100 )
b11100 ]
b100 M
b100 R
#148
1#
#149
b11000 !
b11000 ?
#150
b11100 -
b11100 ^
b11100 *
b11100 \
#151
b11111111111111111111111111110100 3
b110 ;
b110 @
b101 6
b101 `
b11111101 ,
b0 :
b0 b
b0 9
b0 d
b0 <
b0 E
b100000 )
b100000 ]
b110111111010000000000000000 "
b110111111010000000000000000 %
#152
b100000 -
b100000 ^
b1 /
b1 G
b1 H
b1 Q
b1 T
b1 W
b1 Y
1'
b11111111 =
b11111111 I
b11111111 _
b11111111 P
b1 0
b1 D
b1 F
04
11
b0 >
b0 A
b0 J
0+
0#
#153
b0 /
b0 G
b0 H
b0 Q
b0 T
b0 W
b0 Y
b1 =
b1 I
b1 _
b1 P
b10000 -
b10000 ^
b0 0
b0 D
b0 F
b1 L
b1 U
b101 K
b101 Z
b1 N
b1 X
b10000 )
b10000 ]
b0 8
b0 O
b0 S
b0 V
b0 [
b0 a
b0 7
b0 C
b0 c
#154
b0 =
b0 I
b0 _
b0 P
b0 N
b0 X
b0 K
b0 Z
b0 L
b0 U
b0 .
b0 B
#155
15
b0 M
b0 R
#156
1#
#157
b10000 !
b10000 ?
#158
b10100 *
b10100 \
#159
b10000 3
b1000 -
b1000 ^
b11 ;
b11 @
b100 6
b100 `
b100 ,
b100 :
b100 b
b101 9
b101 d
b101 <
b101 E
b1000 )
b1000 ]
b11000001000000010000000101 "
b11000001000000010000000101 %
#160
b10100 -
b10100 ^
0'
01
b1 >
b1 A
b1 J
1+
1(
0#
#161
b100100 )
b100100 ]
b101 8
b101 O
b101 S
b101 V
b101 [
b101 a
b1 7
b1 C
b1 c
#162
b11111111 /
b11111111 G
b11111111 H
b11111111 Q
b11111111 T
b11111111 W
b11111111 Y
b11111111 0
b11111111 D
b11111111 F
b101 K
b101 Z
b11111111 .
b11111111 B
#163
b101 L
b101 U
b11111111 K
b11111111 Z
b11111111 N
b11111111 X
#164
b100 =
b100 I
b100 _
b100 P
05
b100 M
b100 R
1#
#165
b10100 !
b10100 ?
#166
b11000 -
b11000 ^
b11000 *
b11000 \
#167
b100 3
b111 ;
b111 @
b1 6
b1 `
b1 ,
b110 9
b110 d
b110 <
b110 E
b100 8
b100 O
b100 S
b100 V
b100 [
b100 a
b101000 )
b101000 ]
b111000000010000010000000110 "
b111000000010000010000000110 %
#168
14
0(
b100 L
b100 U
0#
#169
b11 =
b11 I
b11 _
b11 P
b11100 )
b11100 ]
b11 M
b11 R
#172
1#
#173
b11000 !
b11000 ?
#174
b11100 -
b11100 ^
b11100 *
b11100 \
#175
b11111111111111111111111111110100 3
b110 ;
b110 @
b101 6
b101 `
b11111101 ,
b0 :
b0 b
b0 9
b0 d
b0 <
b0 E
b100000 )
b100000 ]
b110111111010000000000000000 "
b110111111010000000000000000 %
#176
b100000 -
b100000 ^
b1 /
b1 G
b1 H
b1 Q
b1 T
b1 W
b1 Y
1'
b11111111 =
b11111111 I
b11111111 _
b11111111 P
b1 0
b1 D
b1 F
04
11
b0 >
b0 A
b0 J
0+
0#
#177
b0 /
b0 G
b0 H
b0 Q
b0 T
b0 W
b0 Y
b1 =
b1 I
b1 _
b1 P
b10000 -
b10000 ^
b0 0
b0 D
b0 F
b0 L
b0 U
b101 K
b101 Z
b1 N
b1 X
b10000 )
b10000 ]
b0 8
b0 O
b0 S
b0 V
b0 [
b0 a
b0 7
b0 C
b0 c
#178
b0 =
b0 I
b0 _
b0 P
b0 N
b0 X
b0 K
b0 Z
b0 .
b0 B
#179
15
b0 M
b0 R
#180
1#
#181
b10000 !
b10000 ?
#182
b10100 *
b10100 \
#183
b10000 3
b1000 -
b1000 ^
b11 ;
b11 @
b100 6
b100 `
b100 ,
b100 :
b100 b
b101 9
b101 d
b101 <
b101 E
b1000 )
b1000 ]
b11000001000000010000000101 "
b11000001000000010000000101 %
#184
b10100 -
b10100 ^
0'
01
b1 >
b1 A
b1 J
1+
1(
0#
#185
b100100 )
b100100 ]
b100 8
b100 O
b100 S
b100 V
b100 [
b100 a
b1 7
b1 C
b1 c
#186
b11111111 /
b11111111 G
b11111111 H
b11111111 Q
b11111111 T
b11111111 W
b11111111 Y
b11111111 0
b11111111 D
b11111111 F
b100 K
b100 Z
b11111111 .
b11111111 B
#187
b100 L
b100 U
b11111111 K
b11111111 Z
b11111111 N
b11111111 X
#188
b11 =
b11 I
b11 _
b11 P
05
b11 M
b11 R
1#
#189
b10100 !
b10100 ?
#190
b11000 -
b11000 ^
b11000 *
b11000 \
#191
b100 3
b111 ;
b111 @
b1 6
b1 `
b1 ,
b110 9
b110 d
b110 <
b110 E
b11 8
b11 O
b11 S
b11 V
b11 [
b11 a
b101000 )
b101000 ]
b111000000010000010000000110 "
b111000000010000010000000110 %
#192
14
0(
b11 L
b11 U
0#
#193
b10 =
b10 I
b10 _
b10 P
b11100 )
b11100 ]
b10 M
b10 R
#196
1#
#197
b11000 !
b11000 ?
#198
b11100 -
b11100 ^
b11100 *
b11100 \
#199
b11111111111111111111111111110100 3
b110 ;
b110 @
b101 6
b101 `
b11111101 ,
b0 :
b0 b
b0 9
b0 d
b0 <
b0 E
b100000 )
b100000 ]
b110111111010000000000000000 "
b110111111010000000000000000 %
#200
b100000 -
b100000 ^
b1 /
b1 G
b1 H
b1 Q
b1 T
b1 W
b1 Y
1'
b11111111 =
b11111111 I
b11111111 _
b11111111 P
b1 0
b1 D
b1 F
04
11
b0 >
b0 A
b0 J
0+
0#
#201
b0 /
b0 G
b0 H
b0 Q
b0 T
b0 W
b0 Y
b1 =
b1 I
b1 _
b1 P
b10000 -
b10000 ^
b0 0
b0 D
b0 F
b1 L
b1 U
b11 K
b11 Z
b1 N
b1 X
b10000 )
b10000 ]
b0 8
b0 O
b0 S
b0 V
b0 [
b0 a
b0 7
b0 C
b0 c
#202
b0 =
b0 I
b0 _
b0 P
b0 N
b0 X
b0 K
b0 Z
b0 L
b0 U
b0 .
b0 B
#203
15
b0 M
b0 R
#204
1#
#205
b10000 !
b10000 ?
#206
b10100 *
b10100 \
#207
b10000 3
b1000 -
b1000 ^
b11 ;
b11 @
b100 6
b100 `
b100 ,
b100 :
b100 b
b101 9
b101 d
b101 <
b101 E
b1000 )
b1000 ]
b11000001000000010000000101 "
b11000001000000010000000101 %
#208
b10100 -
b10100 ^
0'
01
b1 >
b1 A
b1 J
1+
1(
0#
#209
b100100 )
b100100 ]
b11 8
b11 O
b11 S
b11 V
b11 [
b11 a
b1 7
b1 C
b1 c
#210
b11111111 /
b11111111 G
b11111111 H
b11111111 Q
b11111111 T
b11111111 W
b11111111 Y
b11111111 0
b11111111 D
b11111111 F
b11 K
b11 Z
b11111111 .
b11111111 B
#211
b11 L
b11 U
b11111111 K
b11111111 Z
b11111111 N
b11111111 X
#212
b10 =
b10 I
b10 _
b10 P
05
b10 M
b10 R
1#
#213
b10100 !
b10100 ?
#214
b11000 -
b11000 ^
b11000 *
b11000 \
#215
b100 3
b111 ;
b111 @
b1 6
b1 `
b1 ,
b110 9
b110 d
b110 <
b110 E
b10 8
b10 O
b10 S
b10 V
b10 [
b10 a
b101000 )
b101000 ]
b111000000010000010000000110 "
b111000000010000010000000110 %
#216
14
0(
b10 L
b10 U
0#
#217
b1 =
b1 I
b1 _
b1 P
b11100 )
b11100 ]
b1 M
b1 R
#220
1#
#221
b11000 !
b11000 ?
#222
b11100 -
b11100 ^
b11100 *
b11100 \
#223
b11111111111111111111111111110100 3
b110 ;
b110 @
b101 6
b101 `
b11111101 ,
b0 :
b0 b
b0 9
b0 d
b0 <
b0 E
b100000 )
b100000 ]
b110111111010000000000000000 "
b110111111010000000000000000 %
#224
b100000 -
b100000 ^
b1 /
b1 G
b1 H
b1 Q
b1 T
b1 W
b1 Y
1'
b11111111 =
b11111111 I
b11111111 _
b11111111 P
b1 0
b1 D
b1 F
04
11
b0 >
b0 A
b0 J
0+
0#
#225
b0 /
b0 G
b0 H
b0 Q
b0 T
b0 W
b0 Y
b1 =
b1 I
b1 _
b1 P
b10000 -
b10000 ^
b0 0
b0 D
b0 F
b0 L
b0 U
b11 K
b11 Z
b1 N
b1 X
b10000 )
b10000 ]
b0 8
b0 O
b0 S
b0 V
b0 [
b0 a
b0 7
b0 C
b0 c
#226
b0 =
b0 I
b0 _
b0 P
b0 N
b0 X
b0 K
b0 Z
b0 .
b0 B
#227
15
b0 M
b0 R
#228
1#
#229
b10000 !
b10000 ?
#230
b10100 *
b10100 \
#231
b10000 3
b1000 -
b1000 ^
b11 ;
b11 @
b100 6
b100 `
b100 ,
b100 :
b100 b
b101 9
b101 d
b101 <
b101 E
b1000 )
b1000 ]
b11000001000000010000000101 "
b11000001000000010000000101 %
#232
b10100 -
b10100 ^
0'
01
b1 >
b1 A
b1 J
1+
1(
0#
#233
b100100 )
b100100 ]
b10 8
b10 O
b10 S
b10 V
b10 [
b10 a
b1 7
b1 C
b1 c
#234
b11111111 /
b11111111 G
b11111111 H
b11111111 Q
b11111111 T
b11111111 W
b11111111 Y
b11111111 0
b11111111 D
b11111111 F
b10 K
b10 Z
b11111111 .
b11111111 B
#235
b10 L
b10 U
b11111111 K
b11111111 Z
b11111111 N
b11111111 X
#236
b1 =
b1 I
b1 _
b1 P
05
b1 M
b1 R
1#
#237
b10100 !
b10100 ?
#238
b11000 -
b11000 ^
b11000 *
b11000 \
#239
b100 3
b111 ;
b111 @
b1 6
b1 `
b1 ,
b110 9
b110 d
b110 <
b110 E
b1 8
b1 O
b1 S
b1 V
b1 [
b1 a
b101000 )
b101000 ]
b111000000010000010000000110 "
b111000000010000010000000110 %
#240
14
0(
b1 L
b1 U
0#
#241
b11100 -
b11100 ^
1'
1&
b0 =
b0 I
b0 _
b0 P
15
b11100 )
b11100 ]
b0 M
b0 R
#244
1#
#245
b11100 !
b11100 ?
#246
b100000 *
b100000 \
#247
b100100 -
b100100 ^
b10 ;
b10 @
b111 9
b111 d
b111 <
b111 E
b100100 )
b100100 ]
b10000000010000010000000111 "
b10000000010000010000000111 %
#248
b100000 -
b100000 ^
0'
b1 /
b1 G
b1 H
b1 Q
b1 T
b1 W
b1 Y
0&
b1 0
b1 D
b1 F
04
0+
1(
0#
#249
b1001 /
b1001 G
b1001 H
b1001 Q
b1001 T
b1001 W
b1001 Y
b1001 0
b1001 D
b1001 F
b1 K
b1 Z
b1 N
b1 X
b1001 7
b1001 C
b1001 c
#250
b1001 K
b1001 Z
b1001 N
b1001 X
b11110111 .
b11110111 B
#251
b1010 =
b1010 I
b1010 _
b1010 P
05
b1010 M
b1010 R
#252
1#
#253
b100000 !
b100000 ?
#254
b100100 -
b100100 ^
b100100 *
b100100 \
#255
bx00 3
bx ;
bx @
bx 6
bx `
b0xxxxxxxx ,
bx :
bx b
bx 9
bx d
bx <
bx E
b101000 )
b101000 ]
bx "
bx %
#256
0#
#257
bx /
bx G
bx H
bx Q
bx T
bx W
bx Y
bx 0
bx D
bx F
bx )
bx ]
bx 8
bx O
bx S
bx V
bx [
bx a
bx 7
bx C
bx c
#258
bx N
bx X
bx K
bx Z
bx L
bx U
bx .
bx B
#259
bx =
bx I
bx _
bx P
bx M
bx R
#260
1#
#261
b100100 !
b100100 ?
#262
b101000 -
b101000 ^
b101000 *
b101000 \
#264
0#
#268
1#
#269
b101000 !
b101000 ?
#270
b101100 -
b101100 ^
b101100 *
b101100 \
#272
0#
#276
1#
#277
b101100 !
b101100 ?
#278
b110000 -
b110000 ^
b110000 *
b110000 \
#280
0#
#284
1#
#285
b110000 !
b110000 ?
#286
b110100 -
b110100 ^
b110100 *
b110100 \
#288
0#
#292
1#
#293
b110100 !
b110100 ?
#294
b111000 -
b111000 ^
b111000 *
b111000 \
#296
0#
#300
1#
#301
b111000 !
b111000 ?
#302
b111100 -
b111100 ^
b111100 *
b111100 \
#304
0#
#308
1#
#309
b111100 !
b111100 ?
#310
b1000000 -
b1000000 ^
b1000000 *
b1000000 \
#312
0#
#316
1#
#317
b1000000 !
b1000000 ?
